{
  "dryRun": false,
  "appId": "main",
  "inboxes": [],
  "hubHost": "localhost",
  "hubStorage": {
    "files": "~/.cache/gravv-development/fileblobs/"
  },
  "storage": {
    "cache": "~/.cache/gravv-development/stage-temp/"
  },
  "brokers": ["kafka:41092"],
  "clientId": "development"
}
